[gd_scene load_steps=6 format=2]

[ext_resource path="res://main_ui.gd" type="Script" id=1]
[ext_resource path="res://key_pressed.wav" type="AudioStream" id=2]
[ext_resource path="res://JetBrainsMono-Regular.ttf" type="DynamicFontData" id=3]

[sub_resource type="DynamicFont" id=1]
size = 20
font_data = ExtResource( 3 )

[sub_resource type="DynamicFont" id=2]
size = 20
font_data = ExtResource( 3 )

[node name="MainUI" type="Control"]
script = ExtResource( 1 )
__meta__ = {
"_edit_use_anchors_": false
}

[node name="ExitProgressBarBackground" type="ColorRect" parent="."]
margin_left = 16.0
margin_top = 392.0
margin_right = 1264.0
margin_bottom = 440.0
color = Color( 0, 0, 0, 0.752941 )
__meta__ = {
"_edit_use_anchors_": false
}

[node name="LabelFPS" type="Label" parent="."]
margin_left = 10.0
margin_top = 10.0
margin_right = 1272.0
margin_bottom = 56.0
custom_fonts/font = SubResource( 1 )
text = "FPS: 60"
align = 2
__meta__ = {
"_edit_use_anchors_": false
}

[node name="ExitProgressBar" type="ColorRect" parent="."]
margin_left = 16.0
margin_top = 392.0
margin_right = 16.0
margin_bottom = 440.0
color = Color( 1, 1, 1, 0.501961 )
__meta__ = {
"_edit_use_anchors_": false
}

[node name="LabelKeyPress" type="Label" parent="."]
margin_left = 16.0
margin_top = 360.0
margin_right = 1264.0
margin_bottom = 472.0
custom_fonts/font = SubResource( 2 )
text = "No Key Pressed"
align = 1
valign = 1
__meta__ = {
"_edit_use_anchors_": false
}

[node name="AudioStreamPlayer" type="AudioStreamPlayer" parent="."]
stream = ExtResource( 2 )
